{
    "urls": [
        {
            "url": "https://yydsys.top/duo",
            "name": "🏡应用多多家庭版"
        },
        {
            "url": "https://gitee.com/whihi/mtv/raw/master/0220.txt",
            "name": "💖春荣线路"
        }, 
        {
            "url": "http://饭太硬.ga/tv",
            "name": "💰️饭太硬线路"
        },          
        {
            "url": "http://我不是.肥猫.love:63/接口禁止贩卖",
            "name": "✨肥猫线路"
        },
{
            "url": "https://agit.ai/66666/mao/raw/commit/2f374f78ad3c2dc96fbf07422c3c3678458cf151/00/000.m3u8",
            "name": "🚀一个分享者线路"
        },

{
      "url": "https://raw.iqiq.io/gaotianliuyun/gao/master/0820.json",
      "name": "🆗820 [jar=神器+俊于+唐三]"
    },
    {
      "url": "https://ghproxy.com/https://raw.githubusercontent.com/gaotianliuyun/gao/master/0820.json",
      "name": "🆙820 [jar=dxawi+俊于]"
    },
    {
      "url": "https://ghproxy.com/https://raw.githubusercontent.com/gaotianliuyun/gao/master/0826.json",
      "name": "🆗826 "
    },
    {
      "url": "https://ghproxy.com/https://raw.githubusercontent.com/gaotianliuyun/gao/master/0827.json",
      "name": "🆗827 "
    },
    {
      "url": "https://ghproxy.com/https://raw.githubusercontent.com/gaotianliuyun/gao/master/0828.json",
      "name": "🆗828 "
    },
 {
            "url": "https://agit.ai/00/8/raw/branch/8/%E6%97%A5%E5%90%8E%E5%85%8D%E8%B4%B9%E6%8E%A5%E5%8F%A3",
            "name": "🍉日后线路"
        },  
  
        {
            "url": "http://shagua888168.3vdo.club",
            "name": "🚀蓝魔线路"
        }, 
        {
            "url": "http://tvbo.run.goorm.site/tangs.json",
            "name": "🚀唐三线路"
        }, 
        {
            "url": "https://ghproxy.com/https://raw.githubusercontent.com/FongMi/CatVodSpider/main/json/config.json",
            "name": "🐝蜂蜜线路"
        },                                                        
                  
        {
            "url": "https://agit.ai/nbwzlyd/xiaopingguo/raw/branch/master/xiaopingguo/xiaopingguo.json",
            "name": "🍳小苹果线路"
        },
        {
            "url": "http://rihou.cc:88/%E8%8D%B7%E5%9F%8E%E8%8C%B6%E7%A7%80/",
            "name": "🍉荷城茶秀"
        },                      
        {
            "url": "https://tvbox.cainisi.cf",
            "name": "🍀菜妮丝线路"
        },
{
      "url": "https://codeberg.org/jgfx/box1/raw/branch/main/2ha.json",
      "name": "2哈"
    },
    {
      "url": "https://www.agit.ai/cyl518/yl/raw/commit/344e60db9ed6f6166997690ba729b0a40a77f7f2/pytv.json",
      "name": "胖丫"
    },
        {
            "url": "https://agit.ai/relax/adcc/raw/branch/master/tvbox.json",
            "name": "✨巧记线路"
        },
   {
        "url": "http://tv.nxog.top/m/111.php?ou=%E6%AC%A7%E6%AD%8C&mz=index2&xl=&jar=index2&123",
        "name": "👇欧歌维护选择下面线路👇",
        "time": "主线路"
    },

    
   {
        "url": "http://tv.nxog.top/m/111.php?ou=%E6%AC%A7%E6%AD%8C&mz=index2&xl=&jar=index2",
        "name": "💓爬虫线路💓 ",
        "time": "主线路"
    },
  {
        "url": "http://tv.nxog.top/m/111.php?ou=%E6%AC%A7%E6%AD%8C&mz=all&xl=&jar=all",
        "name": "💓阿里4k推送TK线路💓 ",
        "time": "主线路"
    },
  {
        "url": "http://tv.nxog.top/m/111.php?ou=%E6%AC%A7%E6%AD%8C&mz=all2&xl=&jar=ou",
        "name": "💚阿里本地tvbox/token.txt💚",
        "time": "主线路"
    },
  
 {
        "url": "http://tv.nxog.top/m/111.php?ou=%E6%AC%A7%E6%AD%8C&mz=js&xl=&jar=js",
        "name": "💛js线路💛",
        "time": "主线路"
    },
     {
        "url": "http://tv.nxog.top/m/111.php?ou=%E6%AC%A7%E6%AD%8C&jar=XBiu&mz=XBiu&xl=",
        "name": "🖤XBiu+XYQ线路🖤",
        "time": "主线路"
    },

        {
        "url": "http://tv.nxog.top/m/111.php?ou=%E6%AC%A7%E6%AD%8C&jar=xBPQ&mz=xBPQ&xl=",
        "name": "💙xBPQ线路💙✨",
        "time": "主线路"
    },
 
        {
        "url": "http://tv.nxog.top/m/111.php?ou=%E6%AC%A7%E6%AD%8C&mz=py&xl=&jar=py",
        "name": "💚py线路💚",
        "time": "主线路"
    },



   {
        "url": "http://tv.nxog.top/m/111.php?ou=%E6%AC%A7%E6%AD%8C&mz=a3&jar=a3&xl=",
        "name": "💖Bilibili和a3网盘线路💖",
        "time": "主线路"

    },
 {
        "url": "http://tv.nxog.top/m/111.php?ou=%E6%AC%A7%E6%AD%8C&mz=zb&xl=",
        "name": "👇欧歌下面收集网络线路👇",
        "time": "主线路"
    },      
          {
            "url": "https://weixine.net/ysc.json",
            "name": "🚀运输车"
        },  
        {
            "url": "https://jihulab.com/xiaohutx/box/-/raw/main/0.json",
            "name": "🚀小胡"
        },  
        {
            "url": "https://pastebin.com/raw/5NHaxyGR",
            "name": "🚀道长线路"
        },
       
        {
            "url": "http://饭太硬.ga/tv",
            "name": "🚀饭太硬线路"
        },
        {
            "url": "http://pandown.pro/tvbox/tvbox.json",
            "name": "🚀巧记线路"
        },
        {
            "url": "http://101.34.67.237/config/3",
            "name": "🚀小雅线路"
        },
        {
            "url": "http://home.jundie.top:81/top98.json",
            "name": "🚀俊佬线路"
        }, 
        {
            "url": "https://ghproxy.com/raw.githubusercontent.com/lm317379829/PyramidStore/pyramid/py.json",
            "name": "🚀霜辉月明"
        },
        {
            "url": "http://dxawi.github.io/0/0.json",
            "name": "🚀dxawi0线路"
        },
      
        {
            "url": "https://raw.liucn.cc/box/m.json",
            "name": "🚀老刘备线路"
        },
  
        {
            "url": "http://52bsj.vip:98/cl",
            "name": "🐹月光宝盒"
        },
         
        {
            "url": "https://download.kstore.space/download/2863/01.txt",
            "name": "🐹潇洒线路"
        },
        {
            "url": "https://agit.ai/Yoursmile7/TVBox/raw/branch/master/XC.json",
            "name": "🐹南风线路"
        },
        {
            "url": "http://52bsj.vip:98/wuai",
            "name": "🐹吾爱线路"
        },  
  
   
        {
            "url": "https://la.kstore.space/download/2883/0110.txt",
            "name": "🐹蚂蚁论坛线路"
        },
    
        {
            "url": "https://agit.ai/66666/mao/raw/branch/master/00/000.m3u8",
            "name": "🐹分享者线路2"
        },
        {
            "url": "https://ju.binghe.ga/4.txt",
            "name": "🐹冰河线路"
        },  
       
        {
            "url": "https://notabug.org/qizhen15800/My9394/raw/master/ProfessionalEdition.m3u8",
            "name": "💎不良帅线路"
        },         
        {
            "url": "http://www.dmtv.ml/mao/single.json",
            "name": "💎乱世线路"
        }, 
        {
            "url": "https://ghproxy.com/https://raw.githubusercontent.com/tv-player/tvbox-line/main/tv/fj.json",
            "name": "💎一影视线路"
        },
        {
            "url": "https://ghproxy.com/https://raw.githubusercontent.com/chengxueli818913/maoTV/main/44.txt",
            "name": "💎佰欣园线路"
        },
      
        {
            "url": "https://ghproxy.com/https://raw.githubusercontent.com/xianyuyimu/TVBOX-/main/TVBox/%E4%B8%80%E6%9C%A8%E8%87%AA%E7%94%A8.json",
            "name": "💎一木线路"
        },        
        {
            "url": "https://agit.ai/kvymin/TV/raw/branch/master/Box.json",
            "name": "💎kvymin线路"
        },
        {
            "url": "https://agit.ai/n/b/raw/branch/a/b/c.json",
            "name": "💎agit/abc线路"
        },
        {
            "url": "https://agit.ai/mmmgit/tvbox/raw/branch/main/zzz1.json",
            "name": "💎zzz1线路"
        },   
       {
            "url": "http://101.34.67.237/config/1",
            "name": "🚀小雅线路"
        },
        {
            "url": "http://home.jundie.top:81/top98.json",
            "name": "🚀俊佬线路"
        }, 
       
        {
            "url": "https://app.easybox.vip/dy",
            "name": "🚀easybox线路"
        },
        {
            "url": "http://itvbox.cc/tvbox/云星日记/1.m3u8",
            "name": "🐹云星日记"
        },        
        {
            "url": "https://jihulab.com/ygbh1/box/-/raw/main/%E6%9C%88%E5%85%89%E5%AE%9D%E7%9B%92",
            "name": "🐹月光宝盒"
        },      
        {
            "url": "https://源享家.ml/45127",
            "name": "🐹源享家线路"
        },
    
        {
            "url": "https://agit.ai/Yoursmile7/TVBox/raw/branch/master/XC.json",
            "name": "🐹南风线路"
        },
        {
            "url": "http://52bsj.vip:98/wuai",
            "name": "🐹吾爱线路"
        }
    ]
}