{
    "urls":[
    {
                "url":"https://gitlab.com/whih/wh/-/raw/main/py1.json",
                "name":"春荣线路"
        },
    {
                "url":"https://raw.githubusercontent.com/zhanghong1983/TVBOXZY/main/sp.json",
                "name":"张宏sp线路"
        },
    {
                "url":"https://agit.ai/66666/mao/raw/commit/666d3c367fd0f910fa190a78ab5aefb5ddc821f2/00/%e8%87%aa%e7%94%a8.jpg",
                "name":"一个分享者1线路"
        },
    {
                "url":"https://agit.ai/66666/XC/raw/commit/20933b37f7bb447c7b0ed4eacf57be9ebd30f9af/9527.json",
                "name":"一个分享者2线路"
        },
    {
                "url":"http://52bsj.vip:81/api/v3/file/get/69336/js0.json?sign=XSuNUslBAPrD34GbnwqtMnK-KnsZ98lZnG-wcKqvvPM%3D%3A0",
                "name":"爱奇优内置线路"
        },
         {
                "url":"https://wds.ecsxs.com/224066.json",
                "name":"金多宝线路"
        },
         {
                "url":"https://raw.githubusercontent.com/zhanghong1983/TVBOXZY/main/js.json",
                "name":"张宏js线路"
        },
        {
                "url":"https://饭太硬.ga/x/o.json",
                "name":"饭太硬线路"
        },
       {
                "url":"https://agit.ai/Yoursmile7/TVBox/raw/branch/master/XC.json",
                "name":"终南干货线路"
        },
        {
                "url":"https://hutool.ml/tang",
                "name":"唐三线路"
        },
{
      "url": "https://raw.iqiq.io/gaotianliuyun/gao/master/0820.json",
      "name": "🆗820 [jar=神器+俊于+唐三]"
    },
    {
      "url": "https://raw.iqiq.io/gaotianliuyun/gao/master/0820.txt",
      "name": "🆙820 [jar=dxawi+俊于]"
    },
    {
      "url": "https://raw.iqiq.io/gaotianliuyun/gao/master/0828.json",
      "name": "🆗828 [唐三]"
    },
    {
      "url": "https://raw.iqiq.io/gaotianliuyun/gao/master/0829.json",
      "name": "🆗829 [俊于top97]"
    },
    {
      "url": "https://raw.iqiq.io/gaotianliuyun/gao/master/js.json",
      "name": "🆗JS★道长[drpy]🆗"
    },
    {
      "url": "https://raw.iqiq.io/gaotianliuyun/gao/master/xBPQ.json",
      "name": "🆙xBPQ [shadowchiu369]"
    },
        {
                "url":"http://刚刚.live/猫",
                "name":"刚刚线路"
        },
        {
                "url":"http://tv.nxog.top/m/1.php?ou=%E6%AC%A7%E6%AD%8C&xl=4",
                "name":"欧歌线路"
        },
        {
                "url":"https://xn--z7x900a.love/",
                "name":"肥猫线路"
        },
        {
                "url":"http://www.dmtv.ml/mao/mao.php?type=single",
                "name":"饭团线路"
        },
        {
                "url":"https://yydsys.top/duo/v.json",
                "name":"多多线路"
        },
        {
            "url": "http://shagua888168.3vdo.club",
            "name": "🚀蓝魔线路"
        },
        {
                "url":"https://agit.ai/66666/mao/raw/commit/8a028124aa463507ccce06043482151b59961fc6/00/%e8%87%aa%e7%94%a8.jpg",
                "name":"一个分享者线路"
        },
        {
                "url":"http://js.134584.xyz/json/pp87.json",
                "name":"白嫖线路"
        },
        {
                "url":"http://111.67.196.181/mtv/meow.txt",
                "name":"太阳线路"
        },
        {
                "url":"http://www.dmtv.ml/mao/single.json",
                "name":"乱世更新线路"
        },
        {
                "url":"https://agit.ai/cyl518/yl/raw/commit/378bba42cab8c02c98dc0347bef000d8d1d355d0/ml.json",
                "name":"胖鸭线路"
        },
        {
                "url":"https://share.nite07.com/api/v3/file/source/13485/0716.txt?sign=dxhV79Bv7z8Dc-UIC75rWZ50Z1qFYUJxqOwaBsKhKQU=:0",
                "name":"网友线路"
        },
        {
                "url":"https://神器每日推送.tk/pz.json",
                "name":"神器线路"
        },
        {
                "url":"https://agit.ai/916418721/dck/raw/branch/master/%e9%98%bf%e8%b7%83.txt",
                "name":"阿跃影视内置线路"
        },
        {
                "url":"http://52bsj.vip:81/api/v3/file/get/29899/box2.json?sign=3cVyKZQr3lFAwdB3HK-A7h33e0MnmG6lLB9oWlvSNnM%3D%3A0",
                "name":"月光宝盒线路"
        },
        {
                "url":"http://dxawi.github.io/0/1.json",
                "name":"dxawi1线路"
        },
        {
                "url":"https://ghproxy.com/https://raw.githubusercontent.com/2hacc/TVBox/main/tvbox",
                "name":"二哈线路"
        },
        {
                "url":"https://ghproxy.com/https://raw.githubusercontent.com/chengxueli818913/maoTV/main/44.txt",
                "name":"佰欣园线路线路"
        },
        {
                "url":"http://52bsj.vip:98/wuai",
                "name":"吾爱线路"
        },
        {
                "url":"https://agit.ai/n/b/raw/branch/a/b/c.json",
                "name":"agit/abc线路"
        },
        {
                "url":"https://raw.liucn.cc/box/m.json",
                "name":"box线路"
        },
        {
                "url":"http://pandown.pro/tvbox/tvbox.json",
                "name":"巧技线路"
        }
    ]
}